practice_3
…
Exercise

Create a new variable labeled “gdp” (Gross domestic product). GDP is the product of population and “gdpPercap”, using the pipe operation

Using the pipe operation, provide the median life expectancy based on continents in year 2007.

Results 1

gapminder %>%
  mutate(gdp = pop* gdpPercap)

## # A tibble: 1,704 x 7
##    country     continent  year lifeExp      pop gdpPercap          gdp
##    <fct>       <fct>     <int>   <dbl>    <int>     <dbl>        <dbl>
##  1 Afghanistan Asia       1952    28.8  8425333      779.  6567086330.
##  2 Afghanistan Asia       1957    30.3  9240934      821.  7585448670.
##  3 Afghanistan Asia       1962    32.0 10267083      853.  8758855797.
##  4 Afghanistan Asia       1967    34.0 11537966      836.  9648014150.
##  5 Afghanistan Asia       1972    36.1 13079460      740.  9678553274.
##  6 Afghanistan Asia       1977    38.4 14880372      786. 11697659231.
##  7 Afghanistan Asia       1982    39.9 12881816      978. 12598563401.
##  8 Afghanistan Asia       1987    40.8 13867957      852. 11820990309.
##  9 Afghanistan Asia       1992    41.7 16317921      649. 10595901589.
## 10 Afghanistan Asia       1997    41.8 22227415      635. 14121995875.
## #  with 1,694 more rows
…
Exercises

Look at the data from year 2007, sorted on life expectancy (use arrange())

Look at the data from year 2007, sorted on life expectancy in descending order.

Results

gapminder %>%
  filter(year== 2007) %>%
  arrange(desc(lifeExp))

## # A tibble: 142 x 6
##    country          continent  year lifeExp       pop gdpPercap
##    <fct>            <fct>     <int>   <dbl>     <int>     <dbl>
##  1 Japan            Asia       2007    82.6 127467972    31656.
##  2 Hong Kong, China Asia       2007    82.2   6980412    39725.
##  3 Iceland          Europe     2007    81.8    301931    36181.
##  4 Switzerland      Europe     2007    81.7   7554661    37506.
##  5 Australia        Oceania    2007    81.2  20434176    34435.
##  6 Spain            Europe     2007    80.9  40448191    28821.
##  7 Sweden           Europe     2007    80.9   9031088    33860.
##  8 Israel           Asia       2007    80.7   6426679    25523.
##  9 France           Europe     2007    80.7  61083916    30470.
## 10 Canada           Americas   2007    80.7  33390141    36319.
## #  with 132 more rows
…
